<svg xmlns="http://www.w3.org/2000/svg" viewBox="0 0 37.84 22.703">
    <defs>
        <style>
            .cls-1{fill:#fff}
        </style>
    </defs>
    <path id="money-bill" d="M35.948 64H1.892A1.892 1.892 0 0 0 0 65.892v18.92A1.892 1.892 0 0 0 1.892 86.7h34.056a1.892 1.892 0 0 0 1.892-1.892V65.892A1.892 1.892 0 0 0 35.948 64zM2.838 83.866v-3.784a3.784 3.784 0 0 1 3.784 3.784zm0-13.244v-3.784h3.784a3.784 3.784 0 0 1-3.784 3.784zM18.92 81.028c-2.613 0-4.73-2.542-4.73-5.676s2.118-5.676 4.73-5.676 4.73 2.541 4.73 5.676-2.119 5.676-4.73 5.676zM35 83.866h-3.782A3.784 3.784 0 0 1 35 80.082zm0-13.244a3.784 3.784 0 0 1-3.784-3.784H35z" class="cls-1" transform="translate(0 -64)"/>
</svg>
